{
    "_filename": "Kompany - Firewall-Dauv769lHw4.mp4",
    "abr": 160,
    "acodec": "opus",
    "age_limit": 0,
    "alt_title": null,
    "annotations": null,
    "artist": null,
    "automatic_captions": {},
    "average_rating": null,
    "categories": [
        "Music"
    ],
    "channel_id": "UCCTYQM7L9G_Lr2w8KH6C-Tw",
    "channel_url": "http://www.youtube.com/channel/UCCTYQM7L9G_Lr2w8KH6C-Tw",
    "chapters": null,
    "creator": null,
    "description": "Metropolis EP\" by Kompany is OUT NOW on Never Say Die!\nStream / Buy ➤ https://NSD.lnk.to/NSDX148\n\nWant more? Check out all our releases on Spotify ➤ http://nsdx.uk/NSD_Spotify\n\n------------------------------------------------------------------------\n\nNever Say Die Playlists ➤\nNSD Weekly - http://nsdx.uk/NSD-Weekly\nNSD New Music - http://nsdx.uk/NSD-NewMusic\nNSD Mixes - http://nsdx.uk/NSD-Mixes\nNSD Top Hits - http://nsdx.uk/NSD-TopHits\nNSD Dubstep Selections - http://nsdx.uk/NSD-DubstepSelect\nNSD Riddim Selections - http://nsdx.uk/NSD-RiddimSelect\nNSD Trap Selections - http://nsdx.uk/NSD-TrapSelect\nNSD Dubstep Gaming - http://nsdx.uk/NSD-Gaming\nNSD ALL RELEASES - http://nsdx.uk/NSD-AllReleases\n\nFollow Kompany ➤\nhttp://facebook.com/kompanymusic\nhttp://twitter.com/kompanymusic\nhttp://soundcloud.com/kompanymusic\nhttp://instagram.com/kompanymusic\n\nFollow Never Say Die ➤\nhttp://nsdx.uk/NSD-Official\nhttp://nsdx.uk/NSD-Facebook\nhttp://nsdx.uk/NSD-Twitter\nhttp://nsdx.uk/NSD-Instagram\nhttp://nsdx.uk/NSD-YouTube\nhttp://nsdx.uk/NSD-SoundCloud\nhttp://nsdx.uk/NSD-Spotify\nhttp://nsdx.uk/NSD-Snapchat\n\nFor even more music, head to our sister label NSD: Black Label at ➤ http://nsdx.uk/NSDBLSub</a",
    "dislike_count": 10,
    "display_id": "Dauv769lHw4",
    "duration": 256,
    "end_time": null,
    "episode_number": null,
    "ext": "mp4",
    "extractor": "youtube",
    "extractor_key": "Youtube",
    "format": "137 - 1920x1080 (1080p)+251 - audio only (DASH audio)",
    "format_id": "137+251",
    "formats": [{
            "abr": 50,
            "acodec": "opus",
            "downloader_options": {
                "http_chunk_size": 10485760
            },
            "ext": "webm",
            "filesize": 1547370,
            "format": "249 - audio only (DASH audio)",
            "format_id": "249",
            "format_note": "DASH audio",
            "http_headers": {
                "Accept": "text/html,application/xhtml+xml,application/xml;q=0.9,*/*;q=0.8",
                "Accept-Charset": "ISO-8859-1,utf-8;q=0.7,*;q=0.7",
                "Accept-Encoding": "gzip, deflate",
                "Accept-Language": "en-us,en;q=0.5",
                "User-Agent": "Mozilla/5.0 (X11; Linux x86_64; rv:59.0) Gecko/20100101 Firefox/59.0"
            },
            "player_url": "/yts/jsbin/player_ias-vflca9-f7/en_US/base.js",
            "protocol": "https",
            "quality": -1,
            "tbr": 59.196,
            "url": "https://r2---sn-ni5f-txbl.googlevideo.com/videoplayback?clen=1547370&mime=audio%2Fwebm&ipbits=0&fvip=2&requiressl=yes&txp=5411222&mm=31%2C29&pl=36&sparams=clen%2Cdur%2Cei%2Cgir%2Cid%2Cinitcwndbps%2Cip%2Cipbits%2Citag%2Ckeepalive%2Clmt%2Cmime%2Cmm%2Cmn%2Cms%2Cmv%2Cpl%2Crequiressl%2Csource%2Cexpire&source=youtube&initcwndbps=1828750&keepalive=yes&c=WEB&id=o-AIVWx4IezezcCXCmS6IF4AUwsMFJ08uEyvIqd68TNW25&expire=1552138830&ip=2604%3A3d09%3A6580%3A730%3A%3A4e41&lmt=1548976687493319&ei=7m2DXMGsNcPxkgaIhJz4Cg&dur=256.221&mt=1552117116&mv=m&ms=au%2Crdu&key=yt6&mn=sn-ni5f-txbl%2Csn-nx5e6nes&itag=249&gir=yes&signature=DF015FEF429FDC30D8819BCAC3128B380BF8B09A.BE26DC5D9DF2A9BA9231741A62C598395B92E9E9&ratebypass=yes",
            "vcodec": "none"
        },
        {
            "abr": 70,
            "acodec": "opus",
            "downloader_options": {
                "http_chunk_size": 10485760
            },
            "ext": "webm",
            "filesize": 2045208,
            "format": "250 - audio only (DASH audio)",
            "format_id": "250",
            "format_note": "DASH audio",
            "http_headers": {
                "Accept": "text/html,application/xhtml+xml,application/xml;q=0.9,*/*;q=0.8",
                "Accept-Charset": "ISO-8859-1,utf-8;q=0.7,*;q=0.7",
                "Accept-Encoding": "gzip, deflate",
                "Accept-Language": "en-us,en;q=0.5",
                "User-Agent": "Mozilla/5.0 (X11; Linux x86_64; rv:59.0) Gecko/20100101 Firefox/59.0"
            },
            "player_url": "/yts/jsbin/player_ias-vflca9-f7/en_US/base.js",
            "protocol": "https",
            "quality": -1,
            "tbr": 74.724,
            "url": "https://r2---sn-ni5f-txbl.googlevideo.com/videoplayback?clen=2045208&mime=audio%2Fwebm&ipbits=0&fvip=2&requiressl=yes&txp=5411222&mm=31%2C29&pl=36&sparams=clen%2Cdur%2Cei%2Cgir%2Cid%2Cinitcwndbps%2Cip%2Cipbits%2Citag%2Ckeepalive%2Clmt%2Cmime%2Cmm%2Cmn%2Cms%2Cmv%2Cpl%2Crequiressl%2Csource%2Cexpire&source=youtube&initcwndbps=1828750&keepalive=yes&c=WEB&id=o-AIVWx4IezezcCXCmS6IF4AUwsMFJ08uEyvIqd68TNW25&expire=1552138830&ip=2604%3A3d09%3A6580%3A730%3A%3A4e41&lmt=1548976688059413&ei=7m2DXMGsNcPxkgaIhJz4Cg&dur=256.221&mt=1552117116&mv=m&ms=au%2Crdu&key=yt6&mn=sn-ni5f-txbl%2Csn-nx5e6nes&itag=250&gir=yes&signature=9FABF75D14EA54F998E4B43969F5AB720057AE27.8205151DBE0CAB604BA93A3CFB927B55829B8EC8&ratebypass=yes",
            "vcodec": "none"
        },
        {
            "abr": 128,
            "acodec": "mp4a.40.2",
            "container": "m4a_dash",
            "downloader_options": {
                "http_chunk_size": 10485760
            },
            "ext": "m4a",
            "filesize": 4147934,
            "format": "140 - audio only (DASH audio)",
            "format_id": "140",
            "format_note": "DASH audio",
            "http_headers": {
                "Accept": "text/html,application/xhtml+xml,application/xml;q=0.9,*/*;q=0.8",
                "Accept-Charset": "ISO-8859-1,utf-8;q=0.7,*;q=0.7",
                "Accept-Encoding": "gzip, deflate",
                "Accept-Language": "en-us,en;q=0.5",
                "User-Agent": "Mozilla/5.0 (X11; Linux x86_64; rv:59.0) Gecko/20100101 Firefox/59.0"
            },
            "player_url": "/yts/jsbin/player_ias-vflca9-f7/en_US/base.js",
            "protocol": "https",
            "quality": -1,
            "tbr": 130.511,
            "url": "https://r2---sn-ni5f-txbl.googlevideo.com/videoplayback?clen=4147934&mime=audio%2Fmp4&ipbits=0&fvip=2&requiressl=yes&txp=5432432&mm=31%2C29&pl=36&sparams=clen%2Cdur%2Cei%2Cgir%2Cid%2Cinitcwndbps%2Cip%2Cipbits%2Citag%2Ckeepalive%2Clmt%2Cmime%2Cmm%2Cmn%2Cms%2Cmv%2Cpl%2Crequiressl%2Csource%2Cexpire&source=youtube&initcwndbps=1828750&keepalive=yes&c=WEB&id=o-AIVWx4IezezcCXCmS6IF4AUwsMFJ08uEyvIqd68TNW25&expire=1552138830&ip=2604%3A3d09%3A6580%3A730%3A%3A4e41&lmt=1548972051889017&ei=7m2DXMGsNcPxkgaIhJz4Cg&dur=256.255&mt=1552117116&mv=m&ms=au%2Crdu&key=yt6&mn=sn-ni5f-txbl%2Csn-nx5e6nes&itag=140&gir=yes&signature=367FFD92327D421AE91365E897D3D27AAE4FBA1C.75B8EF466EFC96C006BCEA0E68ACD6498FE3731C&ratebypass=yes",
            "vcodec": "none"
        },
        {
            "abr": 128,
            "acodec": "vorbis",
            "downloader_options": {
                "http_chunk_size": 10485760
            },
            "ext": "webm",
            "filesize": 4031151,
            "format": "171 - audio only (DASH audio)",
            "format_id": "171",
            "format_note": "DASH audio",
            "http_headers": {
                "Accept": "text/html,application/xhtml+xml,application/xml;q=0.9,*/*;q=0.8",
                "Accept-Charset": "ISO-8859-1,utf-8;q=0.7,*;q=0.7",
                "Accept-Encoding": "gzip, deflate",
                "Accept-Language": "en-us,en;q=0.5",
                "User-Agent": "Mozilla/5.0 (X11; Linux x86_64; rv:59.0) Gecko/20100101 Firefox/59.0"
            },
            "player_url": "/yts/jsbin/player_ias-vflca9-f7/en_US/base.js",
            "protocol": "https",
            "quality": -1,
            "tbr": 134.706,
            "url": "https://r2---sn-ni5f-txbl.googlevideo.com/videoplayback?clen=4031151&mime=audio%2Fwebm&ipbits=0&fvip=2&requiressl=yes&txp=5411222&mm=31%2C29&pl=36&sparams=clen%2Cdur%2Cei%2Cgir%2Cid%2Cinitcwndbps%2Cip%2Cipbits%2Citag%2Ckeepalive%2Clmt%2Cmime%2Cmm%2Cmn%2Cms%2Cmv%2Cpl%2Crequiressl%2Csource%2Cexpire&source=youtube&initcwndbps=1828750&keepalive=yes&c=WEB&id=o-AIVWx4IezezcCXCmS6IF4AUwsMFJ08uEyvIqd68TNW25&expire=1552138830&ip=2604%3A3d09%3A6580%3A730%3A%3A4e41&lmt=1548976689341557&ei=7m2DXMGsNcPxkgaIhJz4Cg&dur=256.192&mt=1552117116&mv=m&ms=au%2Crdu&key=yt6&mn=sn-ni5f-txbl%2Csn-nx5e6nes&itag=171&gir=yes&signature=1413389D0207D8D49DC9DE2399AB418CDB230118.32FEF4B6819FC35471AC0617FDD957C33D0DB59D&ratebypass=yes",
            "vcodec": "none"
        },
        {
            "abr": 160,
            "acodec": "opus",
            "downloader_options": {
                "http_chunk_size": 10485760
            },
            "ext": "webm",
            "filesize": 4050367,
            "format": "251 - audio only (DASH audio)",
            "format_id": "251",
            "format_note": "DASH audio",
            "http_headers": {
                "Accept": "text/html,application/xhtml+xml,application/xml;q=0.9,*/*;q=0.8",
                "Accept-Charset": "ISO-8859-1,utf-8;q=0.7,*;q=0.7",
                "Accept-Encoding": "gzip, deflate",
                "Accept-Language": "en-us,en;q=0.5",
                "User-Agent": "Mozilla/5.0 (X11; Linux x86_64; rv:59.0) Gecko/20100101 Firefox/59.0"
            },
            "player_url": "/yts/jsbin/player_ias-vflca9-f7/en_US/base.js",
            "protocol": "https",
            "quality": -1,
            "tbr": 143.504,
            "url": "https://r2---sn-ni5f-txbl.googlevideo.com/videoplayback?clen=4050367&mime=audio%2Fwebm&ipbits=0&fvip=2&requiressl=yes&txp=5411222&mm=31%2C29&pl=36&sparams=clen%2Cdur%2Cei%2Cgir%2Cid%2Cinitcwndbps%2Cip%2Cipbits%2Citag%2Ckeepalive%2Clmt%2Cmime%2Cmm%2Cmn%2Cms%2Cmv%2Cpl%2Crequiressl%2Csource%2Cexpire&source=youtube&initcwndbps=1828750&keepalive=yes&c=WEB&id=o-AIVWx4IezezcCXCmS6IF4AUwsMFJ08uEyvIqd68TNW25&expire=1552138830&ip=2604%3A3d09%3A6580%3A730%3A%3A4e41&lmt=1548976695551095&ei=7m2DXMGsNcPxkgaIhJz4Cg&dur=256.221&mt=1552117116&mv=m&ms=au%2Crdu&key=yt6&mn=sn-ni5f-txbl%2Csn-nx5e6nes&itag=251&gir=yes&signature=AA9D313AB9CC72C6CCD8F03E8225CA8C1283E1C2.8B026A6971F6CDECF2447139F529991BEEC7D05D&ratebypass=yes",
            "vcodec": "none"
        },
        {
            "acodec": "none",
            "container": "webm",
            "downloader_options": {
                "http_chunk_size": 10485760
            },
            "ext": "webm",
            "filesize": 3152259,
            "format": "278 - 256x144 (144p)",
            "format_id": "278",
            "format_note": "144p",
            "fps": 30,
            "height": 144,
            "http_headers": {
                "Accept": "text/html,application/xhtml+xml,application/xml;q=0.9,*/*;q=0.8",
                "Accept-Charset": "ISO-8859-1,utf-8;q=0.7,*;q=0.7",
                "Accept-Encoding": "gzip, deflate",
                "Accept-Language": "en-us,en;q=0.5",
                "User-Agent": "Mozilla/5.0 (X11; Linux x86_64; rv:59.0) Gecko/20100101 Firefox/59.0"
            },
            "player_url": "/yts/jsbin/player_ias-vflca9-f7/en_US/base.js",
            "protocol": "https",
            "quality": -1,
            "tbr": 108.468,
            "url": "https://r2---sn-ni5f-txbl.googlevideo.com/videoplayback?clen=3152259&mime=video%2Fwebm&ipbits=0&fvip=2&requiressl=yes&txp=5432432&mm=31%2C29&pl=36&sparams=aitags%2Cclen%2Cdur%2Cei%2Cgir%2Cid%2Cinitcwndbps%2Cip%2Cipbits%2Citag%2Ckeepalive%2Clmt%2Cmime%2Cmm%2Cmn%2Cms%2Cmv%2Cpl%2Crequiressl%2Csource%2Cexpire&source=youtube&initcwndbps=1828750&expire=1552138830&keepalive=yes&c=WEB&id=o-AIVWx4IezezcCXCmS6IF4AUwsMFJ08uEyvIqd68TNW25&aitags=133%2C134%2C135%2C136%2C137%2C160%2C242%2C243%2C244%2C247%2C248%2C278&ip=2604%3A3d09%3A6580%3A730%3A%3A4e41&lmt=1548975841800847&ei=7m2DXMGsNcPxkgaIhJz4Cg&dur=256.200&mt=1552117116&mv=m&ms=au%2Crdu&key=yt6&mn=sn-ni5f-txbl%2Csn-nx5e6nes&itag=278&gir=yes&signature=794669D760F6B338ABD5790CC49A15F000E1A5B8.0FF421DA3E06167BEA04CC1D0B6102FDED8776FB&ratebypass=yes",
            "vcodec": "vp9",
            "width": 256
        },
        {
            "acodec": "none",
            "downloader_options": {
                "http_chunk_size": 10485760
            },
            "ext": "mp4",
            "filesize": 3563261,
            "format": "160 - 256x144 (144p)",
            "format_id": "160",
            "format_note": "144p",
            "fps": 30,
            "height": 144,
            "http_headers": {
                "Accept": "text/html,application/xhtml+xml,application/xml;q=0.9,*/*;q=0.8",
                "Accept-Charset": "ISO-8859-1,utf-8;q=0.7,*;q=0.7",
                "Accept-Encoding": "gzip, deflate",
                "Accept-Language": "en-us,en;q=0.5",
                "User-Agent": "Mozilla/5.0 (X11; Linux x86_64; rv:59.0) Gecko/20100101 Firefox/59.0"
            },
            "player_url": "/yts/jsbin/player_ias-vflca9-f7/en_US/base.js",
            "protocol": "https",
            "quality": -1,
            "tbr": 117.172,
            "url": "https://r2---sn-ni5f-txbl.googlevideo.com/videoplayback?clen=3563261&mime=video%2Fmp4&ipbits=0&fvip=2&requiressl=yes&txp=5432432&mm=31%2C29&pl=36&sparams=aitags%2Cclen%2Cdur%2Cei%2Cgir%2Cid%2Cinitcwndbps%2Cip%2Cipbits%2Citag%2Ckeepalive%2Clmt%2Cmime%2Cmm%2Cmn%2Cms%2Cmv%2Cpl%2Crequiressl%2Csource%2Cexpire&source=youtube&initcwndbps=1828750&expire=1552138830&keepalive=yes&c=WEB&id=o-AIVWx4IezezcCXCmS6IF4AUwsMFJ08uEyvIqd68TNW25&aitags=133%2C134%2C135%2C136%2C137%2C160%2C242%2C243%2C244%2C247%2C248%2C278&ip=2604%3A3d09%3A6580%3A730%3A%3A4e41&lmt=1548973488352117&ei=7m2DXMGsNcPxkgaIhJz4Cg&dur=256.199&mt=1552117116&mv=m&ms=au%2Crdu&key=yt6&mn=sn-ni5f-txbl%2Csn-nx5e6nes&itag=160&gir=yes&signature=376E2D498391120969A2A08FAC30195F8D9B89C3.D98217049D5E2D55D902AC9B448455B68E0AC2D3&ratebypass=yes",
            "vcodec": "avc1.4d400c",
            "width": 256
        },
        {
            "acodec": "none",
            "downloader_options": {
                "http_chunk_size": 10485760
            },
            "ext": "webm",
            "filesize": 7238847,
            "format": "242 - 426x240 (240p)",
            "format_id": "242",
            "format_note": "240p",
            "fps": 30,
            "height": 240,
            "http_headers": {
                "Accept": "text/html,application/xhtml+xml,application/xml;q=0.9,*/*;q=0.8",
                "Accept-Charset": "ISO-8859-1,utf-8;q=0.7,*;q=0.7",
                "Accept-Encoding": "gzip, deflate",
                "Accept-Language": "en-us,en;q=0.5",
                "User-Agent": "Mozilla/5.0 (X11; Linux x86_64; rv:59.0) Gecko/20100101 Firefox/59.0"
            },
            "player_url": "/yts/jsbin/player_ias-vflca9-f7/en_US/base.js",
            "protocol": "https",
            "quality": -1,
            "tbr": 245.656,
            "url": "https://r2---sn-ni5f-txbl.googlevideo.com/videoplayback?clen=7238847&mime=video%2Fwebm&ipbits=0&fvip=2&requiressl=yes&txp=5432432&mm=31%2C29&pl=36&sparams=aitags%2Cclen%2Cdur%2Cei%2Cgir%2Cid%2Cinitcwndbps%2Cip%2Cipbits%2Citag%2Ckeepalive%2Clmt%2Cmime%2Cmm%2Cmn%2Cms%2Cmv%2Cpl%2Crequiressl%2Csource%2Cexpire&source=youtube&initcwndbps=1828750&expire=1552138830&keepalive=yes&c=WEB&id=o-AIVWx4IezezcCXCmS6IF4AUwsMFJ08uEyvIqd68TNW25&aitags=133%2C134%2C135%2C136%2C137%2C160%2C242%2C243%2C244%2C247%2C248%2C278&ip=2604%3A3d09%3A6580%3A730%3A%3A4e41&lmt=1548975841838748&ei=7m2DXMGsNcPxkgaIhJz4Cg&dur=256.200&mt=1552117116&mv=m&ms=au%2Crdu&key=yt6&mn=sn-ni5f-txbl%2Csn-nx5e6nes&itag=242&gir=yes&signature=A3736D1D8AD994B219CCD338F5F74E4969996EF2.D7F721ED181CFA9D1D0E397955FA84DB3398727F&ratebypass=yes",
            "vcodec": "vp9",
            "width": 426
        },
        {
            "acodec": "none",
            "downloader_options": {
                "http_chunk_size": 10485760
            },
            "ext": "mp4",
            "filesize": 7848996,
            "format": "133 - 426x240 (240p)",
            "format_id": "133",
            "format_note": "240p",
            "fps": 30,
            "height": 240,
            "http_headers": {
                "Accept": "text/html,application/xhtml+xml,application/xml;q=0.9,*/*;q=0.8",
                "Accept-Charset": "ISO-8859-1,utf-8;q=0.7,*;q=0.7",
                "Accept-Encoding": "gzip, deflate",
                "Accept-Language": "en-us,en;q=0.5",
                "User-Agent": "Mozilla/5.0 (X11; Linux x86_64; rv:59.0) Gecko/20100101 Firefox/59.0"
            },
            "player_url": "/yts/jsbin/player_ias-vflca9-f7/en_US/base.js",
            "protocol": "https",
            "quality": -1,
            "tbr": 257.999,
            "url": "https://r2---sn-ni5f-txbl.googlevideo.com/videoplayback?clen=7848996&mime=video%2Fmp4&ipbits=0&fvip=2&requiressl=yes&txp=5432432&mm=31%2C29&pl=36&sparams=aitags%2Cclen%2Cdur%2Cei%2Cgir%2Cid%2Cinitcwndbps%2Cip%2Cipbits%2Citag%2Ckeepalive%2Clmt%2Cmime%2Cmm%2Cmn%2Cms%2Cmv%2Cpl%2Crequiressl%2Csource%2Cexpire&source=youtube&initcwndbps=1828750&expire=1552138830&keepalive=yes&c=WEB&id=o-AIVWx4IezezcCXCmS6IF4AUwsMFJ08uEyvIqd68TNW25&aitags=133%2C134%2C135%2C136%2C137%2C160%2C242%2C243%2C244%2C247%2C248%2C278&ip=2604%3A3d09%3A6580%3A730%3A%3A4e41&lmt=1548973488353693&ei=7m2DXMGsNcPxkgaIhJz4Cg&dur=256.199&mt=1552117116&mv=m&ms=au%2Crdu&key=yt6&mn=sn-ni5f-txbl%2Csn-nx5e6nes&itag=133&gir=yes&signature=974EE847F747DE06430ED0E0871D64FC9A3B7A04.76BA300B4626188A9B800181DC8FE2AAC3915851&ratebypass=yes",
            "vcodec": "avc1.4d4015",
            "width": 426
        },
        {
            "acodec": "none",
            "downloader_options": {
                "http_chunk_size": 10485760
            },
            "ext": "webm",
            "filesize": 14509051,
            "format": "243 - 640x360 (360p)",
            "format_id": "243",
            "format_note": "360p",
            "fps": 30,
            "height": 360,
            "http_headers": {
                "Accept": "text/html,application/xhtml+xml,application/xml;q=0.9,*/*;q=0.8",
                "Accept-Charset": "ISO-8859-1,utf-8;q=0.7,*;q=0.7",
                "Accept-Encoding": "gzip, deflate",
                "Accept-Language": "en-us,en;q=0.5",
                "User-Agent": "Mozilla/5.0 (X11; Linux x86_64; rv:59.0) Gecko/20100101 Firefox/59.0"
            },
            "player_url": "/yts/jsbin/player_ias-vflca9-f7/en_US/base.js",
            "protocol": "https",
            "quality": -1,
            "tbr": 548.506,
            "url": "https://r2---sn-ni5f-txbl.googlevideo.com/videoplayback?clen=14509051&mime=video%2Fwebm&ipbits=0&fvip=2&requiressl=yes&txp=5432432&mm=31%2C29&pl=36&sparams=aitags%2Cclen%2Cdur%2Cei%2Cgir%2Cid%2Cinitcwndbps%2Cip%2Cipbits%2Citag%2Ckeepalive%2Clmt%2Cmime%2Cmm%2Cmn%2Cms%2Cmv%2Cpl%2Crequiressl%2Csource%2Cexpire&source=youtube&initcwndbps=1828750&expire=1552138830&keepalive=yes&c=WEB&id=o-AIVWx4IezezcCXCmS6IF4AUwsMFJ08uEyvIqd68TNW25&aitags=133%2C134%2C135%2C136%2C137%2C160%2C242%2C243%2C244%2C247%2C248%2C278&ip=2604%3A3d09%3A6580%3A730%3A%3A4e41&lmt=1548975841796702&ei=7m2DXMGsNcPxkgaIhJz4Cg&dur=256.200&mt=1552117116&mv=m&ms=au%2Crdu&key=yt6&mn=sn-ni5f-txbl%2Csn-nx5e6nes&itag=243&gir=yes&signature=522E091987A648AAE767390CA049EAAAE8E462D6.1B21DB3DC8D9D60A88E3BBCE3AF8EFE6242E059E&ratebypass=yes",
            "vcodec": "vp9",
            "width": 640
        },
        {
            "acodec": "none",
            "downloader_options": {
                "http_chunk_size": 10485760
            },
            "ext": "mp4",
            "filesize": 20348440,
            "format": "134 - 640x360 (360p)",
            "format_id": "134",
            "format_note": "360p",
            "fps": 30,
            "height": 360,
            "http_headers": {
                "Accept": "text/html,application/xhtml+xml,application/xml;q=0.9,*/*;q=0.8",
                "Accept-Charset": "ISO-8859-1,utf-8;q=0.7,*;q=0.7",
                "Accept-Encoding": "gzip, deflate",
                "Accept-Language": "en-us,en;q=0.5",
                "User-Agent": "Mozilla/5.0 (X11; Linux x86_64; rv:59.0) Gecko/20100101 Firefox/59.0"
            },
            "player_url": "/yts/jsbin/player_ias-vflca9-f7/en_US/base.js",
            "protocol": "https",
            "quality": -1,
            "tbr": 659.609,
            "url": "https://r2---sn-ni5f-txbl.googlevideo.com/videoplayback?clen=20348440&mime=video%2Fmp4&ipbits=0&fvip=2&requiressl=yes&txp=5432432&mm=31%2C29&pl=36&sparams=aitags%2Cclen%2Cdur%2Cei%2Cgir%2Cid%2Cinitcwndbps%2Cip%2Cipbits%2Citag%2Ckeepalive%2Clmt%2Cmime%2Cmm%2Cmn%2Cms%2Cmv%2Cpl%2Crequiressl%2Csource%2Cexpire&source=youtube&initcwndbps=1828750&expire=1552138830&keepalive=yes&c=WEB&id=o-AIVWx4IezezcCXCmS6IF4AUwsMFJ08uEyvIqd68TNW25&aitags=133%2C134%2C135%2C136%2C137%2C160%2C242%2C243%2C244%2C247%2C248%2C278&ip=2604%3A3d09%3A6580%3A730%3A%3A4e41&lmt=1548973488351518&ei=7m2DXMGsNcPxkgaIhJz4Cg&dur=256.199&mt=1552117116&mv=m&ms=au%2Crdu&key=yt6&mn=sn-ni5f-txbl%2Csn-nx5e6nes&itag=134&gir=yes&signature=33329D25E238A2358914A88AB4B7679CBA8CD5A8.130D402BE1050EAE194A2AD49372AF1437B3A455&ratebypass=yes",
            "vcodec": "avc1.4d401e",
            "width": 640
        },
        {
            "acodec": "none",
            "downloader_options": {
                "http_chunk_size": 10485760
            },
            "ext": "webm",
            "filesize": 25398664,
            "format": "244 - 854x480 (480p)",
            "format_id": "244",
            "format_note": "480p",
            "fps": 30,
            "height": 480,
            "http_headers": {
                "Accept": "text/html,application/xhtml+xml,application/xml;q=0.9,*/*;q=0.8",
                "Accept-Charset": "ISO-8859-1,utf-8;q=0.7,*;q=0.7",
                "Accept-Encoding": "gzip, deflate",
                "Accept-Language": "en-us,en;q=0.5",
                "User-Agent": "Mozilla/5.0 (X11; Linux x86_64; rv:59.0) Gecko/20100101 Firefox/59.0"
            },
            "player_url": "/yts/jsbin/player_ias-vflca9-f7/en_US/base.js",
            "protocol": "https",
            "quality": -1,
            "tbr": 914.37,
            "url": "https://r2---sn-ni5f-txbl.googlevideo.com/videoplayback?clen=25398664&mime=video%2Fwebm&ipbits=0&fvip=2&requiressl=yes&txp=5432432&mm=31%2C29&pl=36&sparams=aitags%2Cclen%2Cdur%2Cei%2Cgir%2Cid%2Cinitcwndbps%2Cip%2Cipbits%2Citag%2Ckeepalive%2Clmt%2Cmime%2Cmm%2Cmn%2Cms%2Cmv%2Cpl%2Crequiressl%2Csource%2Cexpire&source=youtube&initcwndbps=1828750&expire=1552138830&keepalive=yes&c=WEB&id=o-AIVWx4IezezcCXCmS6IF4AUwsMFJ08uEyvIqd68TNW25&aitags=133%2C134%2C135%2C136%2C137%2C160%2C242%2C243%2C244%2C247%2C248%2C278&ip=2604%3A3d09%3A6580%3A730%3A%3A4e41&lmt=1548975841803336&ei=7m2DXMGsNcPxkgaIhJz4Cg&dur=256.200&mt=1552117116&mv=m&ms=au%2Crdu&key=yt6&mn=sn-ni5f-txbl%2Csn-nx5e6nes&itag=244&gir=yes&signature=C37A55C88ADD2C71C0101CB8F81B7F29B266BD88.456066E8C3BFA8A562282EED2029C36723F81D6F&ratebypass=yes",
            "vcodec": "vp9",
            "width": 854
        },
        {
            "acodec": "none",
            "downloader_options": {
                "http_chunk_size": 10485760
            },
            "ext": "mp4",
            "filesize": 37541299,
            "format": "135 - 854x480 (480p)",
            "format_id": "135",
            "format_note": "480p",
            "fps": 30,
            "height": 480,
            "http_headers": {
                "Accept": "text/html,application/xhtml+xml,application/xml;q=0.9,*/*;q=0.8",
                "Accept-Charset": "ISO-8859-1,utf-8;q=0.7,*;q=0.7",
                "Accept-Encoding": "gzip, deflate",
                "Accept-Language": "en-us,en;q=0.5",
                "User-Agent": "Mozilla/5.0 (X11; Linux x86_64; rv:59.0) Gecko/20100101 Firefox/59.0"
            },
            "player_url": "/yts/jsbin/player_ias-vflca9-f7/en_US/base.js",
            "protocol": "https",
            "quality": -1,
            "tbr": 1205.601,
            "url": "https://r2---sn-ni5f-txbl.googlevideo.com/videoplayback?clen=37541299&mime=video%2Fmp4&ipbits=0&fvip=2&requiressl=yes&txp=5432432&mm=31%2C29&pl=36&sparams=aitags%2Cclen%2Cdur%2Cei%2Cgir%2Cid%2Cinitcwndbps%2Cip%2Cipbits%2Citag%2Ckeepalive%2Clmt%2Cmime%2Cmm%2Cmn%2Cms%2Cmv%2Cpl%2Crequiressl%2Csource%2Cexpire&source=youtube&initcwndbps=1828750&expire=1552138830&keepalive=yes&c=WEB&id=o-AIVWx4IezezcCXCmS6IF4AUwsMFJ08uEyvIqd68TNW25&aitags=133%2C134%2C135%2C136%2C137%2C160%2C242%2C243%2C244%2C247%2C248%2C278&ip=2604%3A3d09%3A6580%3A730%3A%3A4e41&lmt=1548973488355836&ei=7m2DXMGsNcPxkgaIhJz4Cg&dur=256.199&mt=1552117116&mv=m&ms=au%2Crdu&key=yt6&mn=sn-ni5f-txbl%2Csn-nx5e6nes&itag=135&gir=yes&signature=11620F58546474F4EEA33DE5124389F8CCB00CE0.066B6092F96222F3F7339997C3A5E2719A13977A&ratebypass=yes",
            "vcodec": "avc1.4d401f",
            "width": 854
        },
        {
            "acodec": "none",
            "downloader_options": {
                "http_chunk_size": 10485760
            },
            "ext": "webm",
            "filesize": 54736768,
            "format": "247 - 1280x720 (720p)",
            "format_id": "247",
            "format_note": "720p",
            "fps": 30,
            "height": 720,
            "http_headers": {
                "Accept": "text/html,application/xhtml+xml,application/xml;q=0.9,*/*;q=0.8",
                "Accept-Charset": "ISO-8859-1,utf-8;q=0.7,*;q=0.7",
                "Accept-Encoding": "gzip, deflate",
                "Accept-Language": "en-us,en;q=0.5",
                "User-Agent": "Mozilla/5.0 (X11; Linux x86_64; rv:59.0) Gecko/20100101 Firefox/59.0"
            },
            "player_url": "/yts/jsbin/player_ias-vflca9-f7/en_US/base.js",
            "protocol": "https",
            "quality": -1,
            "tbr": 2087.456,
            "url": "https://r2---sn-ni5f-txbl.googlevideo.com/videoplayback?clen=54736768&mime=video%2Fwebm&ipbits=0&fvip=2&requiressl=yes&txp=5432432&mm=31%2C29&pl=36&sparams=aitags%2Cclen%2Cdur%2Cei%2Cgir%2Cid%2Cinitcwndbps%2Cip%2Cipbits%2Citag%2Ckeepalive%2Clmt%2Cmime%2Cmm%2Cmn%2Cms%2Cmv%2Cpl%2Crequiressl%2Csource%2Cexpire&source=youtube&initcwndbps=1828750&expire=1552138830&keepalive=yes&c=WEB&id=o-AIVWx4IezezcCXCmS6IF4AUwsMFJ08uEyvIqd68TNW25&aitags=133%2C134%2C135%2C136%2C137%2C160%2C242%2C243%2C244%2C247%2C248%2C278&ip=2604%3A3d09%3A6580%3A730%3A%3A4e41&lmt=1548975841815723&ei=7m2DXMGsNcPxkgaIhJz4Cg&dur=256.200&mt=1552117116&mv=m&ms=au%2Crdu&key=yt6&mn=sn-ni5f-txbl%2Csn-nx5e6nes&itag=247&gir=yes&signature=B1B917AFC0A529ABADEBA5912EE6A0D6BCF3504B.B3EE1DD08544A2F9E3CB03AAF93B46F83FF528B3&ratebypass=yes",
            "vcodec": "vp9",
            "width": 1280
        },
        {
            "acodec": "none",
            "downloader_options": {
                "http_chunk_size": 10485760
            },
            "ext": "mp4",
            "filesize": 74468615,
            "format": "136 - 1280x720 (720p)",
            "format_id": "136",
            "format_note": "720p",
            "fps": 30,
            "height": 720,
            "http_headers": {
                "Accept": "text/html,application/xhtml+xml,application/xml;q=0.9,*/*;q=0.8",
                "Accept-Charset": "ISO-8859-1,utf-8;q=0.7,*;q=0.7",
                "Accept-Encoding": "gzip, deflate",
                "Accept-Language": "en-us,en;q=0.5",
                "User-Agent": "Mozilla/5.0 (X11; Linux x86_64; rv:59.0) Gecko/20100101 Firefox/59.0"
            },
            "player_url": "/yts/jsbin/player_ias-vflca9-f7/en_US/base.js",
            "protocol": "https",
            "quality": -1,
            "tbr": 2384.26,
            "url": "https://r2---sn-ni5f-txbl.googlevideo.com/videoplayback?clen=74468615&mime=video%2Fmp4&ipbits=0&fvip=2&requiressl=yes&txp=5432432&mm=31%2C29&pl=36&sparams=aitags%2Cclen%2Cdur%2Cei%2Cgir%2Cid%2Cinitcwndbps%2Cip%2Cipbits%2Citag%2Ckeepalive%2Clmt%2Cmime%2Cmm%2Cmn%2Cms%2Cmv%2Cpl%2Crequiressl%2Csource%2Cexpire&source=youtube&initcwndbps=1828750&expire=1552138830&keepalive=yes&c=WEB&id=o-AIVWx4IezezcCXCmS6IF4AUwsMFJ08uEyvIqd68TNW25&aitags=133%2C134%2C135%2C136%2C137%2C160%2C242%2C243%2C244%2C247%2C248%2C278&ip=2604%3A3d09%3A6580%3A730%3A%3A4e41&lmt=1548973488349607&ei=7m2DXMGsNcPxkgaIhJz4Cg&dur=256.199&mt=1552117116&mv=m&ms=au%2Crdu&key=yt6&mn=sn-ni5f-txbl%2Csn-nx5e6nes&itag=136&gir=yes&signature=1746F4F8FCADB08DCECAD1E24B89A163C9B87F35.3954B98FBDD415482A2F04F8BF9D0740C72F85BD&ratebypass=yes",
            "vcodec": "avc1.4d401f",
            "width": 1280
        },
        {
            "acodec": "none",
            "downloader_options": {
                "http_chunk_size": 10485760
            },
            "ext": "webm",
            "filesize": 98688073,
            "format": "248 - 1920x1080 (1080p)",
            "format_id": "248",
            "format_note": "1080p",
            "fps": 30,
            "height": 1080,
            "http_headers": {
                "Accept": "text/html,application/xhtml+xml,application/xml;q=0.9,*/*;q=0.8",
                "Accept-Charset": "ISO-8859-1,utf-8;q=0.7,*;q=0.7",
                "Accept-Encoding": "gzip, deflate",
                "Accept-Language": "en-us,en;q=0.5",
                "User-Agent": "Mozilla/5.0 (X11; Linux x86_64; rv:59.0) Gecko/20100101 Firefox/59.0"
            },
            "player_url": "/yts/jsbin/player_ias-vflca9-f7/en_US/base.js",
            "protocol": "https",
            "quality": -1,
            "tbr": 3835.836,
            "url": "https://r2---sn-ni5f-txbl.googlevideo.com/videoplayback?clen=98688073&mime=video%2Fwebm&ipbits=0&fvip=2&requiressl=yes&txp=5432432&mm=31%2C29&pl=36&sparams=aitags%2Cclen%2Cdur%2Cei%2Cgir%2Cid%2Cinitcwndbps%2Cip%2Cipbits%2Citag%2Ckeepalive%2Clmt%2Cmime%2Cmm%2Cmn%2Cms%2Cmv%2Cpl%2Crequiressl%2Csource%2Cexpire&source=youtube&initcwndbps=1828750&expire=1552138830&keepalive=yes&c=WEB&id=o-AIVWx4IezezcCXCmS6IF4AUwsMFJ08uEyvIqd68TNW25&aitags=133%2C134%2C135%2C136%2C137%2C160%2C242%2C243%2C244%2C247%2C248%2C278&ip=2604%3A3d09%3A6580%3A730%3A%3A4e41&lmt=1548975841811259&ei=7m2DXMGsNcPxkgaIhJz4Cg&dur=256.200&mt=1552117116&mv=m&ms=au%2Crdu&key=yt6&mn=sn-ni5f-txbl%2Csn-nx5e6nes&itag=248&gir=yes&signature=5C9A84BDDE310B5C861AC191EDA8840883CDED2D.60533959D5A3D9346696B09760C99B1B83030E35&ratebypass=yes",
            "vcodec": "vp9",
            "width": 1920
        },
        {
            "acodec": "none",
            "downloader_options": {
                "http_chunk_size": 10485760
            },
            "ext": "mp4",
            "filesize": 137952497,
            "format": "137 - 1920x1080 (1080p)",
            "format_id": "137",
            "format_note": "1080p",
            "fps": 30,
            "height": 1080,
            "http_headers": {
                "Accept": "text/html,application/xhtml+xml,application/xml;q=0.9,*/*;q=0.8",
                "Accept-Charset": "ISO-8859-1,utf-8;q=0.7,*;q=0.7",
                "Accept-Encoding": "gzip, deflate",
                "Accept-Language": "en-us,en;q=0.5",
                "User-Agent": "Mozilla/5.0 (X11; Linux x86_64; rv:59.0) Gecko/20100101 Firefox/59.0"
            },
            "player_url": "/yts/jsbin/player_ias-vflca9-f7/en_US/base.js",
            "protocol": "https",
            "quality": -1,
            "tbr": 4414.579,
            "url": "https://r2---sn-ni5f-txbl.googlevideo.com/videoplayback?clen=137952497&mime=video%2Fmp4&ipbits=0&fvip=2&requiressl=yes&txp=5432432&mm=31%2C29&pl=36&sparams=aitags%2Cclen%2Cdur%2Cei%2Cgir%2Cid%2Cinitcwndbps%2Cip%2Cipbits%2Citag%2Ckeepalive%2Clmt%2Cmime%2Cmm%2Cmn%2Cms%2Cmv%2Cpl%2Crequiressl%2Csource%2Cexpire&source=youtube&initcwndbps=1828750&expire=1552138830&keepalive=yes&c=WEB&id=o-AIVWx4IezezcCXCmS6IF4AUwsMFJ08uEyvIqd68TNW25&aitags=133%2C134%2C135%2C136%2C137%2C160%2C242%2C243%2C244%2C247%2C248%2C278&ip=2604%3A3d09%3A6580%3A730%3A%3A4e41&lmt=1548973488384620&ei=7m2DXMGsNcPxkgaIhJz4Cg&dur=256.199&mt=1552117116&mv=m&ms=au%2Crdu&key=yt6&mn=sn-ni5f-txbl%2Csn-nx5e6nes&itag=137&gir=yes&signature=7DAAA196E5825B1E4F629F3C11BE7AF3B21091D7.A57A44A594A7F4991DA9FC80A574950AE22E1B27&ratebypass=yes",
            "vcodec": "avc1.640028",
            "width": 1920
        },
        {
            "abr": 96,
            "acodec": "mp4a.40.2",
            "asr": 44100,
            "ext": "mp4",
            "filesize": 27755255,
            "format": "18 - 640x360 (medium)",
            "format_id": "18",
            "format_note": "medium",
            "fps": null,
            "height": 360,
            "http_headers": {
                "Accept": "text/html,application/xhtml+xml,application/xml;q=0.9,*/*;q=0.8",
                "Accept-Charset": "ISO-8859-1,utf-8;q=0.7,*;q=0.7",
                "Accept-Encoding": "gzip, deflate",
                "Accept-Language": "en-us,en;q=0.5",
                "User-Agent": "Mozilla/5.0 (X11; Linux x86_64; rv:59.0) Gecko/20100101 Firefox/59.0"
            },
            "player_url": "/yts/jsbin/player_ias-vflca9-f7/en_US/base.js",
            "protocol": "https",
            "quality": 1,
            "tbr": 866.488,
            "url": "https://r2---sn-ni5f-txbl.googlevideo.com/videoplayback?clen=27755255&mime=video%2Fmp4&ipbits=0&fvip=2&requiressl=yes&ratebypass=yes&txp=5431432&mm=31%2C29&pl=36&sparams=clen%2Cdur%2Cei%2Cgir%2Cid%2Cinitcwndbps%2Cip%2Cipbits%2Citag%2Clmt%2Cmime%2Cmm%2Cmn%2Cms%2Cmv%2Cpl%2Cratebypass%2Crequiressl%2Csource%2Cexpire&source=youtube&initcwndbps=1828750&c=WEB&id=o-AIVWx4IezezcCXCmS6IF4AUwsMFJ08uEyvIqd68TNW25&expire=1552138830&ip=2604%3A3d09%3A6580%3A730%3A%3A4e41&lmt=1548972070483830&ei=7m2DXMGsNcPxkgaIhJz4Cg&dur=256.255&mt=1552117116&mv=m&ms=au%2Crdu&key=yt6&mn=sn-ni5f-txbl%2Csn-nx5e6nes&itag=18&gir=yes&signature=C50109D7D203C346405F04CE95F5E6BB444DA0EB.BB37B4D0FAD761D17FB8AAE60A7199E3E31539BE",
            "vcodec": "avc1.42001E",
            "width": 640
        }
    ],
    "fps": 30,
    "fulltitle": "Kompany - Firewall",
    "height": 1080,
    "id": "Dauv769lHw4",
    "is_live": null,
    "license": null,
    "like_count": 908,
    "playlist": null,
    "playlist_index": null,
    "requested_formats": [{
            "acodec": "none",
            "downloader_options": {
                "http_chunk_size": 10485760
            },
            "ext": "mp4",
            "filesize": 137952497,
            "format": "137 - 1920x1080 (1080p)",
            "format_id": "137",
            "format_note": "1080p",
            "fps": 30,
            "height": 1080,
            "http_headers": {
                "Accept": "text/html,application/xhtml+xml,application/xml;q=0.9,*/*;q=0.8",
                "Accept-Charset": "ISO-8859-1,utf-8;q=0.7,*;q=0.7",
                "Accept-Encoding": "gzip, deflate",
                "Accept-Language": "en-us,en;q=0.5",
                "User-Agent": "Mozilla/5.0 (X11; Linux x86_64; rv:59.0) Gecko/20100101 Firefox/59.0"
            },
            "player_url": "/yts/jsbin/player_ias-vflca9-f7/en_US/base.js",
            "protocol": "https",
            "quality": -1,
            "tbr": 4414.579,
            "url": "https://r2---sn-ni5f-txbl.googlevideo.com/videoplayback?clen=137952497&mime=video%2Fmp4&ipbits=0&fvip=2&requiressl=yes&txp=5432432&mm=31%2C29&pl=36&sparams=aitags%2Cclen%2Cdur%2Cei%2Cgir%2Cid%2Cinitcwndbps%2Cip%2Cipbits%2Citag%2Ckeepalive%2Clmt%2Cmime%2Cmm%2Cmn%2Cms%2Cmv%2Cpl%2Crequiressl%2Csource%2Cexpire&source=youtube&initcwndbps=1828750&expire=1552138830&keepalive=yes&c=WEB&id=o-AIVWx4IezezcCXCmS6IF4AUwsMFJ08uEyvIqd68TNW25&aitags=133%2C134%2C135%2C136%2C137%2C160%2C242%2C243%2C244%2C247%2C248%2C278&ip=2604%3A3d09%3A6580%3A730%3A%3A4e41&lmt=1548973488384620&ei=7m2DXMGsNcPxkgaIhJz4Cg&dur=256.199&mt=1552117116&mv=m&ms=au%2Crdu&key=yt6&mn=sn-ni5f-txbl%2Csn-nx5e6nes&itag=137&gir=yes&signature=7DAAA196E5825B1E4F629F3C11BE7AF3B21091D7.A57A44A594A7F4991DA9FC80A574950AE22E1B27&ratebypass=yes",
            "vcodec": "avc1.640028",
            "width": 1920
        },
        {
            "abr": 160,
            "acodec": "opus",
            "downloader_options": {
                "http_chunk_size": 10485760
            },
            "ext": "webm",
            "filesize": 4050367,
            "format": "251 - audio only (DASH audio)",
            "format_id": "251",
            "format_note": "DASH audio",
            "http_headers": {
                "Accept": "text/html,application/xhtml+xml,application/xml;q=0.9,*/*;q=0.8",
                "Accept-Charset": "ISO-8859-1,utf-8;q=0.7,*;q=0.7",
                "Accept-Encoding": "gzip, deflate",
                "Accept-Language": "en-us,en;q=0.5",
                "User-Agent": "Mozilla/5.0 (X11; Linux x86_64; rv:59.0) Gecko/20100101 Firefox/59.0"
            },
            "player_url": "/yts/jsbin/player_ias-vflca9-f7/en_US/base.js",
            "protocol": "https",
            "quality": -1,
            "tbr": 143.504,
            "url": "https://r2---sn-ni5f-txbl.googlevideo.com/videoplayback?clen=4050367&mime=audio%2Fwebm&ipbits=0&fvip=2&requiressl=yes&txp=5411222&mm=31%2C29&pl=36&sparams=clen%2Cdur%2Cei%2Cgir%2Cid%2Cinitcwndbps%2Cip%2Cipbits%2Citag%2Ckeepalive%2Clmt%2Cmime%2Cmm%2Cmn%2Cms%2Cmv%2Cpl%2Crequiressl%2Csource%2Cexpire&source=youtube&initcwndbps=1828750&keepalive=yes&c=WEB&id=o-AIVWx4IezezcCXCmS6IF4AUwsMFJ08uEyvIqd68TNW25&expire=1552138830&ip=2604%3A3d09%3A6580%3A730%3A%3A4e41&lmt=1548976695551095&ei=7m2DXMGsNcPxkgaIhJz4Cg&dur=256.221&mt=1552117116&mv=m&ms=au%2Crdu&key=yt6&mn=sn-ni5f-txbl%2Csn-nx5e6nes&itag=251&gir=yes&signature=AA9D313AB9CC72C6CCD8F03E8225CA8C1283E1C2.8B026A6971F6CDECF2447139F529991BEEC7D05D&ratebypass=yes",
            "vcodec": "none"
        }
    ],
    "requested_subtitles": null,
    "resolution": null,
    "season_number": null,
    "series": null,
    "start_time": null,
    "stretched_ratio": null,
    "subtitles": {},
    "tags": [
        "Never Say Die Records",
        "Never Say Die",
        "NSD",
        "Black Label",
        "Dubstep",
        "Bass",
        "Zomboy",
        "SKisM",
        "MUST DIE!",
        "Eptic",
        "kompany",
        "firewall",
        "kompany - firewall",
        "metropolis ep",
        "kompany - metropolis",
        "bass",
        "bass music",
        "karra",
        "virus syndicate",
        "NSD Vol. 6"
    ],
    "thumbnail": "https://i.ytimg.com/vi/Dauv769lHw4/maxresdefault.jpg",
    "thumbnails": [{
        "id": "0",
        "url": "https://i.ytimg.com/vi/Dauv769lHw4/maxresdefault.jpg"
    }],
    "title": "Kompany - Firewall",
    "track": null,
    "upload_date": "20190131",
    "uploader": "Never Say Die Records",
    "uploader_id": "wewillneversaydie",
    "uploader_url": "http://www.youtube.com/user/wewillneversaydie",
    "vbr": null,
    "vcodec": "avc1.640028",
    "view_count": 9913,
    "webpage_url": "https://www.youtube.com/watch?v=Dauv769lHw4",
    "webpage_url_basename": "watch",
    "width": 1920
}